%YAML 1.1
%TAG !u! tag:unity3d.com,2011:
--- !u!21 &2100000
Material:
  serializedVersion: 6
  m_ObjectHideFlags: 0
  m_CorrespondingSourceObject: {fileID: 0}
  m_PrefabInstance: {fileID: 0}
  m_PrefabAsset: {fileID: 0}
  m_Name: Giraffe
  m_Shader: {fileID: 4800000, guid: 0eb4419a161c539409c94325c8e86336, type: 3}
  m_ShaderKeywords: _DISSOLVEALPHASOURCE_MAIN_MAP_ALPHA _DISSOLVEEDGETEXTURESOURCE_NONE
    _DISSOLVEGLOBALCONTROL_NONE _DISSOLVEMAPPINGTYPE_NORMAL _DISSOLVEMASKCOUNT_ONE
    _DISSOLVEMASK_XYZ_AXIS
  m_LightmapFlags: 4
  m_EnableInstancingVariants: 0
  m_DoubleSidedGI: 0
  m_CustomRenderQueue: -1
  stringTagMap: {}
  disabledShaderPasses: []
  m_SavedProperties:
    serializedVersion: 3
    m_TexEnvs:
    - _BumpMap:
        m_Texture: {fileID: 0}
        m_Scale: {x: 1, y: 1}
        m_Offset: {x: 0, y: 0}
    - _DetailAlbedoMap:
        m_Texture: {fileID: 0}
        m_Scale: {x: 1, y: 1}
        m_Offset: {x: 0, y: 0}
    - _DetailMask:
        m_Texture: {fileID: 0}
        m_Scale: {x: 1, y: 1}
        m_Offset: {x: 0, y: 0}
    - _DetailNormalMap:
        m_Texture: {fileID: 0}
        m_Scale: {x: 1, y: 1}
        m_Offset: {x: 0, y: 0}
    - _DissolveEdgeTexture:
        m_Texture: {fileID: 0}
        m_Scale: {x: 1, y: 1}
        m_Offset: {x: 0, y: 0}
    - _DissolveMap1:
        m_Texture: {fileID: 0}
        m_Scale: {x: 1, y: 1}
        m_Offset: {x: 0, y: 0}
    - _DissolveMap2:
        m_Texture: {fileID: 0}
        m_Scale: {x: 1, y: 1}
        m_Offset: {x: 0, y: 0}
    - _DissolveMap3:
        m_Texture: {fileID: 0}
        m_Scale: {x: 1, y: 1}
        m_Offset: {x: 0, y: 0}
    - _EmissionMap:
        m_Texture: {fileID: 0}
        m_Scale: {x: 1, y: 1}
        m_Offset: {x: 0, y: 0}
    - _MainTex:
        m_Texture: {fileID: 2800000, guid: e8cf6ce25139c4e86ad27d9d430c9488, type: 3}
        m_Scale: {x: 1, y: 1}
        m_Offset: {x: 0, y: 0}
    - _MetallicGlossMap:
        m_Texture: {fileID: 0}
        m_Scale: {x: 1, y: 1}
        m_Offset: {x: 0, y: 0}
    - _OcclusionMap:
        m_Texture: {fileID: 0}
        m_Scale: {x: 1, y: 1}
        m_Offset: {x: 0, y: 0}
    - _ParallaxMap:
        m_Texture: {fileID: 0}
        m_Scale: {x: 1, y: 1}
        m_Offset: {x: 0, y: 0}
    - _SpecGlossMap:
        m_Texture: {fileID: 0}
        m_Scale: {x: 1, y: 1}
        m_Offset: {x: 0, y: 0}
    - _SpecularMap:
        m_Texture: {fileID: 0}
        m_Scale: {x: 1, y: 1}
        m_Offset: {x: 0, y: 0}
    m_Floats:
    - _BumpScale: 1
    - _Cull: 0
    - _Cutoff: 0.5
    - _DetailNormalMapScale: 1
    - _DissolveAlphaSource: 0
    - _DissolveAlphaSourceTexturesUVSet: 0
    - _DissolveCutoff: 0.25
    - _DissolveEdgeColorIntensity: 0
    - _DissolveEdgeDistortionSource: 0
    - _DissolveEdgeDistortionStrength: 0
    - _DissolveEdgeShape: 0
    - _DissolveEdgeTextureAlphaOffset: 0
    - _DissolveEdgeTextureIsDynamic: 0
    - _DissolveEdgeTextureMipmap: 1
    - _DissolveEdgeTexturePhaseOffset: 0
    - _DissolveEdgeTextureReverse: 0
    - _DissolveEdgeTextureSource: 0
    - _DissolveEdgeWidth: 0.25
    - _DissolveGIMultiplier: 1
    - _DissolveGlobalControl: 0
    - _DissolveMainMapTiling: 1
    - _DissolveMappingType: 0
    - _DissolveMask: 1
    - _DissolveMaskAxis: 1
    - _DissolveMaskCount: 0
    - _DissolveMaskInvert: -1
    - _DissolveMaskOffset: 0
    - _DissolveMaskRadius: 1
    - _DissolveMaskSpace: 0
    - _DissolveNoiseStrength: 0.1
    - _DissolveSourceAlphaTexturesBlend: 0
    - _DissolveTriplanarMappingSpace: 0
    - _DstBlend: 0
    - _GlossMapScale: 1
    - _Glossiness: 0.241
    - _GlossyReflections: 1
    - _Metallic: 0.396
    - _Mode: 0
    - _OcclusionStrength: 1
    - _Parallax: 0.02
    - _SmoothnessTextureChannel: 0
    - _Specular: 0
    - _SpecularAlpha: 0
    - _SpecularHighlights: 1
    - _SrcBlend: 1
    - _UVSec: 0
    - _ZWrite: 1
    m_Colors:
    - _Color: {r: 1, g: 1, b: 1, a: 1}
    - _DissolveEdgeColor: {r: 1, g: 0, b: 0, a: 0.5019608}
    - _DissolveMap1_Scroll: {r: 0, g: 0, b: 0, a: 0}
    - _DissolveMap2_Scroll: {r: 0, g: 0, b: 0, a: 0}
    - _DissolveMap3_Scroll: {r: 0, g: 0, b: 0, a: 0}
    - _DissolveMaskNormal: {r: 1, g: 0, b: 0, a: 0}
    - _DissolveMaskPosition: {r: 0, g: 0, b: 0, a: 0}
    - _Dissolve_ObjectWorldPos: {r: 0, g: 0, b: 0, a: 0}
    - _EmissionColor: {r: 0, g: 0, b: 0, a: 1}
    - _SpecColor: {r: 0, g: 0, b: 0, a: 1}
    - _SpecularColor: {r: 0.2, g: 0.2, b: 0.2, a: 1}
